FoodSafetyHW
…
length(unique(bus$postal_code))

## [1] 47

Do you see any problems with the values of this variable?

Answer:

47 is a lot less than my intuitive expectation, but if the average zip code covers a large enough area to include many restaurants, it might make sense. We need to investigate further.

To explore the zip code values, it makes sense to examine counts, i.e., the number of records that have the same zip code value. This is essentially answering the question: How many restaurants are in each zip code?

count(bus, postal_code)

## # A tibble: 47 x 2
##    postal_code     n
##    <chr>       <int>
##  1 ""            259
##  2 00000           1
##  3 92672           1
##  4 94013           2
##  5 94014           2
##  6 94066           1
##  7 941             1
##  8 94101           2
##  9 94102         458
## 10 94103         558
## # ... with 37 more rows

We see that there are many blanks. Also, there is some bad data where the postal code got screwed up, e.g., there are 3 Ca' and 3CA values We also have some extended postal codes (those codes with more than 5 digits).

Lets clean up the extended codes by dropping the digits beyond the first 5. You can use the substr' function for this Remember to keep the original variable. Call the new variablezip and add it to the data frame.

bus = mutate(bus, zip = substr(postal_code, 1, 5))
count(bus, zip)

## # A tibble: 45 x 2
##    zip       n
##    <chr> <int>
##  1 ""      259
##  2 00000     1
##  3 92672     1
##  4 94013     2
##  5 94014     2
##  6 94066     1
##  7 941       1
##  8 94101     2
##  9 94102   458
## 10 94103   559
## # ... with 35 more rows
…
Text Answer Answer 94545 - Hayward, look at record and see its vending machine company with many locations

94602 - Oakland, look at the record and see its probably a typo and should be 94102

94609 - Oakland, Food truck based in oakland but probably travels around.

Often we want to clean the data to improve our analysis. This cleaning might include changing values for a variable or dropping records.

Lets correct 94602 to the more likely value based on your analysis. Modify the derived field `zip to replace 94602 with the correct value.

bus$zip[bus$zip == "94602"] = "94102"

count(bus, zip)

## # A tibble: 44 x 2
##    zip       n
##    <chr> <int>
##  1 ""      259
##  2 00000     1
##  3 92672     1
##  4 94013     2
##  5 94014     2
##  6 94066     1
##  7 941       1
##  8 94101     2
##  9 94102   459
## 10 94103   559
## # ... with 34 more rows
…
vio2016 = mutate(vio2016, desc2 = tolower(desc2))

Now how many different violations are there?

length(unique(vio2016$desc2))

## [1] 124

Thats far fewer. Lets examine the 20 most common violations to see if there are types of violations that we might be able to quantify. Create a table of counts violations and examine the top 25.

vioTable = count(vio2016, desc2)

head(arrange(vioTable, desc(n)),25)

## # A tibble: 25 x 2
##    desc2                                                                 n
##    <chr>                                                             <int>
##  1 unclean or degraded floors walls or ceilings                        844
##  2 "moderate risk food holding temperature   "                         697
##  3 "unclean or degraded floors walls or ceilings  "                    692
##  4 "inadequate and inaccessible handwashing facilities  "              667
##  5 "high risk food holding temperature   "                             593
##  6 "inadequately cleaned or sanitized food contact surfaces  "         576
##  7 unapproved or unmaintained equipment or utensils                    527
##  8 "wiping cloths not clean or properly stored or inadequate saniti   517
##  9 "moderate risk food holding temperature "                           491
## 10 "unapproved or unmaintained equipment or utensils  "                484
## # ... with 15 more rows

Also, examine the 25 least common. Are they very different from the most common?

head(arrange(vioTable, n),25)

## # A tibble: 25 x 2
##    desc2                                                                 n
##    <chr>                                                             <int>
##  1 "consumer advisory not provided for raw or undercooked foods  "       1
##  2 discharge from employee nose mouth or eye                             1
##  3 improperly displayed mobile food permit or signage                    1
##  4 improperly washed fruits and vegetables                               1
##  5 mobile food facility hcd insignia unavailable                         1
##  6 "noncompliance with cottage food operation  "                         1
##  7 "noncompliance with gulf coast oyster regulation  "                   1
##  8 "reservice of previously served foods  "                              1
##  9 "unpermitted food facility  "                                         1
## 10 unreported or unrestricted ill employee with communicable disease     1
## # ... with 15 more rows
…
